{
	"info": {
		"_postman_id": "84df0d8a-f019-45dd-9183-496fde587e85",
		"name": "s29",
		"schema": "https://schema.getpostman.com/json/collection/v2.1.0/collection.json"
	},
	"item": [
		{
			"name": "GET Request",
			"request": {
				"method": "GET",
				"header": []
			},
			"response": []
		},
		{
			"name": "User (GET)",
			"protocolProfileBehavior": {
				"disableBodyPruning": true
			},
			"request": {
				"method": "GET",
				"header": [],
				"body": {
					"mode": "raw",
					"raw": "{\r\n    \"firstName\" : \"David\",\r\n    \"lastName\" : \"Verunque\"\r\n}",
					"options": {
						"raw": {
							"language": "json"
						}
					}
				},
				"url": {
					"raw": "http://localhost:3000/users",
					"protocol": "http",
					"host": [
						"localhost"
					],
					"port": "3000",
					"path": [
						"users"
					]
				}
			},
			"response": []
		},
		{
			"name": "User (DELETE)",
			"request": {
				"method": "GET",
				"header": []
			},
			"response": []
		},
		{
			"name": "Home",
			"request": {
				"method": "GET",
				"header": []
			},
			"response": []
		},
		{
			"name": "SignUp",
			"request": {
				"method": "GET",
				"header": []
			},
			"response": []
		}
	]
}